{
  "products":[
    {
      "name":"Round neck Cotton Tshirt",
      "image":"R.mipmap.tshirt"
    },
    {
      "name":"Romanian WallClock",
      "image":"R.mipmap.wallclock"
    },
    {
      "name":"Daniel Klein Exclusive Wristwatch",
      "image":"R.mipmap.watch"
    },
    {
      "name":"Blue White 8 of a set DinnerWare",
      "image":"R.mipmap.dinnerware"
    }
    ]
}